power_sim/pt/input_files/detector110_noacti.vcd
$date
	Wed Nov 22 11:29:41 2023
$end
$version
	ModelSim Version 2020.2
$end
$timescale
	1ps
$end

$scope module detector110_tester $end
$var parameter 32 ! _QUIT $end
$var parameter 32 " _DUMPVCD $end
$var parameter 32 # _NOACTI $end
$var reg 1 $ clk $end
$var reg 1 % rst_n $end
$var reg 1 & aa $end
$var wire 1 ' ww $end

$scope module UUT $end
$var wire 1 ( a $end
$var wire 1 ) clk $end
$var wire 1 * reset $end
$var wire 1 ' w $end
$var wire 1 + state [1] $end
$var wire 1 , state [0] $end
$var wire 1 - UNCONNECTED $end
$var wire 1 . n_0 $end
$var wire 1 / n_2 $end
$var wire 1 0 n_3 $end
$var wire 1 1 n_4 $end
$var wire 1 2 n_5 $end
$var wire 1 3 n_6 $end
$var wire 1 4 n_7 $end
$var wire 1 5 n_8 $end

$scope module state_reg[0] $end
$var wire 1 6 D $end
$var wire 1 ) CK $end
$var wire 1 , Q $end
$var wire 1 0 QN $end
$var reg 1 7 NOTIFIER $end
$var wire 1 8 IQ $end
$var wire 1 9 nextstate $end
$var wire 1 : IQN $end
$upscope $end

$scope module state_reg[1] $end
$var wire 1 ; D $end
$var wire 1 ) CK $end
$var wire 1 + Q $end
$var wire 1 - QN $end
$var reg 1 < NOTIFIER $end
$var wire 1 = IQ $end
$var wire 1 > nextstate $end
$var wire 1 ? IQN $end
$upscope $end

$scope module g218 $end
$var wire 1 @ A $end
$var wire 1 A B1 $end
$var wire 1 B B2 $end
$var wire 1 5 ZN $end
$var wire 1 C i_8 $end
$var wire 1 D i_9 $end
$upscope $end

$scope module g217 $end
$var wire 1 E A1 $end
$var wire 1 F A2 $end
$var wire 1 G B1 $end
$var wire 1 H B2 $end
$var wire 1 I C1 $end
$var wire 1 J C2 $end
$var wire 1 4 ZN $end
$var wire 1 K i_20 $end
$var wire 1 L i_21 $end
$var wire 1 M i_24 $end
$var wire 1 N i_22 $end
$var wire 1 O i_23 $end
$upscope $end

$scope module g219 $end
$var wire 1 P A1 $end
$var wire 1 Q A2 $end
$var wire 1 2 ZN $end
$upscope $end

$scope module g220 $end
$var wire 1 R A1 $end
$var wire 1 S A2 $end
$var wire 1 T A3 $end
$var wire 1 3 ZN $end
$var wire 1 U i_8 $end
$var wire 1 V i_9 $end
$upscope $end

$scope module g221 $end
$var wire 1 W A1 $end
$var wire 1 X A2 $end
$var wire 1 1 ZN $end
$var wire 1 Y i_10 $end
$upscope $end

$scope module g222 $end
$var wire 1 Z A $end
$var wire 1 ' ZN $end
$upscope $end

$scope module g223 $end
$var wire 1 [ A1 $end
$var wire 1 \ A2 $end
$var wire 1 . ZN $end
$var wire 1 ] i_10 $end
$upscope $end

$scope module g224 $end
$var wire 1 ^ A $end
$var wire 1 / ZN $end
$upscope $end
$upscope $end
$upscope $end
$enddefinitions $end
#0
$dumpvars
0$
1%
0&
x7
x<
b1 !
b1 "
b1 #
x'
x,
x+
x-
x.
x/
x0
x1
x2
x3
x4
x5
x8
x9
x:
x=
x>
x?
xC
xD
xK
xL
xM
xN
xO
xU
xV
xY
x]
1*
0)
0(
x6
x;
x@
xA
xB
xE
xF
xG
xH
xI
xJ
xP
xQ
xR
xS
xT
xW
xX
xZ
x[
x\
x^
$end
#12
1^
#14
0X
0Y
0F
#19
0/
#30
11
#33
0W
0T
0U
#39
1Q
#44
1J
1M
#57
13
#70
1E
1N
#71
12
1@
#84
1G
1O
1L
1K
#85
1A
1D
1C
#99
05
#104
04
#108
0;
0>
#113
06
09
#1000
1$
1)
0=
1?
08
1:
#1082
1-
#1095
10
#1108
0,
#1109
1S
1B
#1110
0+
#1119
0P
#1122
0\
0]
0H
#1125
0[
0R
0V
#1144
1.
#1157
1I
#1158
1Z
#1163
0'
#2000
0$
0)
#3000
1$
1)
#4000
0$
0)
#5000
1$
1)
#6000
0%
0$
0*
0)
#6012
0^
#6026
1/
#6040
1W
1T
