power_sim/pt/input_files/detector110_vsim.vcd
$date
	Tue Nov 21 22:26:55 2023
$end
$version
	ModelSim Version 2020.2
$end
$timescale
	1ps
$end

$scope module detector110_tester $end

$scope module UUT $end
$var wire 1 ! a $end
$var wire 1 " clk $end
$var wire 1 # reset $end
$var wire 1 $ w $end
$var wire 1 % state [1] $end
$var wire 1 & state [0] $end
$var wire 1 ' UNCONNECTED $end
$var wire 1 ( n_0 $end
$var wire 1 ) n_2 $end
$var wire 1 * n_3 $end
$var wire 1 + n_4 $end
$var wire 1 , n_5 $end
$var wire 1 - n_6 $end
$var wire 1 . n_7 $end
$var wire 1 / n_8 $end

$scope module state_reg[0] $end
$var wire 1 0 D $end
$var wire 1 " CK $end
$var wire 1 & Q $end
$var wire 1 * QN $end
$var reg 1 1 NOTIFIER $end
$var wire 1 2 IQ $end
$var wire 1 3 nextstate $end
$var wire 1 4 IQN $end
$upscope $end

$scope module state_reg[1] $end
$var wire 1 5 D $end
$var wire 1 " CK $end
$var wire 1 % Q $end
$var wire 1 ' QN $end
$var reg 1 6 NOTIFIER $end
$var wire 1 7 IQ $end
$var wire 1 8 nextstate $end
$var wire 1 9 IQN $end
$upscope $end

$scope module g218 $end
$var wire 1 : A $end
$var wire 1 ; B1 $end
$var wire 1 < B2 $end
$var wire 1 / ZN $end
$var wire 1 = i_8 $end
$var wire 1 > i_9 $end
$upscope $end

$scope module g217 $end
$var wire 1 ? A1 $end
$var wire 1 @ A2 $end
$var wire 1 A B1 $end
$var wire 1 B B2 $end
$var wire 1 C C1 $end
$var wire 1 D C2 $end
$var wire 1 . ZN $end
$var wire 1 E i_20 $end
$var wire 1 F i_21 $end
$var wire 1 G i_24 $end
$var wire 1 H i_22 $end
$var wire 1 I i_23 $end
$upscope $end

$scope module g219 $end
$var wire 1 J A1 $end
$var wire 1 K A2 $end
$var wire 1 , ZN $end
$upscope $end

$scope module g220 $end
$var wire 1 L A1 $end
$var wire 1 M A2 $end
$var wire 1 N A3 $end
$var wire 1 - ZN $end
$var wire 1 O i_8 $end
$var wire 1 P i_9 $end
$upscope $end

$scope module g221 $end
$var wire 1 Q A1 $end
$var wire 1 R A2 $end
$var wire 1 + ZN $end
$var wire 1 S i_10 $end
$upscope $end

$scope module g222 $end
$var wire 1 T A $end
$var wire 1 $ ZN $end
$upscope $end

$scope module g223 $end
$var wire 1 U A1 $end
$var wire 1 V A2 $end
$var wire 1 ( ZN $end
$var wire 1 W i_10 $end
$upscope $end

$scope module g224 $end
$var wire 1 X A $end
$var wire 1 ) ZN $end
$upscope $end
$upscope $end
$upscope $end
$enddefinitions $end
#0
$dumpvars
x1
x6
x$
x&
x%
x'
x(
x)
x*
x+
x,
x-
x.
x/
x2
x3
x4
x7
x8
x9
x=
x>
xE
xF
xG
xH
xI
xO
xP
xS
xW
1#
0"
0!
x0
x5
x:
x;
x<
x?
x@
xA
xB
xC
xD
xJ
xK
xL
xM
xN
xQ
xR
xT
xU
xV
xX
$end
#12
1X
#14
0R
0S
0@
#19
0)
#30
1+
#33
0Q
0N
0O
#39
1K
#44
1D
1G
#57
1-
#70
1?
1H
#71
1,
1:
#84
1A
1I
1F
1E
#85
1;
1>
1=
#99
0/
#104
0.
#108
05
08
#113
00
03
#1000
1"
07
19
02
14
#1082
1'
#1095
1*
#1108
0&
#1109
1M
1<
#1110
0%
#1119
0J
#1122
0V
0W
0B
#1125
0U
0L
0P
#1144
1(
#1157
1C
#1158
1T
#1163
0$
#2000
0"
#3000
1"
#4000
0"
#5000
1"
#6000
0#
0"
#6012
0X
#6026
1)
#6040
1Q
1N
#7000
1"
#8000
1!
0"
#8014
1R
1S
1@
#8028
0+
#8037
0K
#8042
0D
#8091
0,
#8104
0A
0I
0F
0E
#8105
0;
#8144
1.
#8153
10
13
#9000
1"
12
04
#9097
0*
#9111
0M
0<
0>
0=
#9118
1&
#9132
1V
1B
1I
1F
1E
#9143
1/
#9152
15
18
#9157
0.
#9166
00
03
#10000
0"
#11000
1"
17
09
02
14
#11085
0'
#11095
1*
#11108
0&
#11109
1M
1<
1>
1=
#11121
1%
#11122
0V
0B
0I
0F
0E
#11126
0/
#11130
1J
#11135
05
08
#11136
1U
1L
1P
1O
#11161
1,
0-
#11166
1.
#11174
1A
1I
1F
1E
0?
#11175
1;
0:
0=
10
13
#11197
1/
#11201
0.
#11206
15
18
#11210
00
03
#12000
0"
#13000
1"
#14000
0!
0"
#14014
0R
0S
0@
0H
0F
0E
#14030
1+
#14039
1K
#14042
1.
#14044
1D
#14051
10
13
#15000
1"
12
04
#15097
0*
#15111
0M
0P
0O
0<
#15118
1&
#15132
1V
1W
1B
#15138
1-
#15151
0(
1?
1H
1F
1E
#15152
1:
1=
#15164
0C
#15165
0T
#15167
0.
#15169
0/
#15174
1$
#15176
00
03
#15178
05
08
#16000
0"
#17000
1"
07
19
02
14
#17082
1'
#17095
1*
#17108
0&
#17109
1M
1P
1O
1<
#17110
0%
#17119
0J
#17122
0V
0W
0B
#17125
0U
0L
0P
0O
#17144
1(
#17157
1C
#17158
1T
#17163
0$
#18000
0"
#19000
1"
#20000
0"
#21000
1"
#22000
0"
#23000
1"
#24000
1!
0"
#24014
1R
1S
1@
#24028
0+
#24037
0K
#24042
0D
#24091
0,
#24104
0A
0I
0F
0E
#24105
0;
#24144
1.
#24153
10
13
#25000
1"
12
04
#25097
0*
#25111
0M
0<
0>
0=
#25118
1&
#25132
1V
1B
1I
1F
1E
#25143
1/
#25152
15
18
#25157
0.
#25166
00
03
